<?xml version="1.0" encoding="utf-8"?>
<!-- Generator: Adobe Illustrator 18.0.0, SVG Export Plug-In . SVG Version: 6.00 Build 0)  -->
<!DOCTYPE svg PUBLIC "-//W3C//DTD SVG 1.1//EN" "http://www.w3.org/Graphics/SVG/1.1/DTD/svg11.dtd">
<svg version="1.1" id="Layer_1" xmlns="http://www.w3.org/2000/svg" xmlns:xlink="http://www.w3.org/1999/xlink" x="0px" y="0px"
	 viewBox="0 0 123 955.6" enable-background="new 0 0 123 955.6" xml:space="preserve">
<g>
	<g>
		<path d="M61.5,955.6c-0.4,0-0.7-0.3-0.7-0.7V0.7c0-0.4,0.3-0.7,0.7-0.7s0.7,0.3,0.7,0.7v954.3C62.2,955.3,61.9,955.6,61.5,955.6z"
			/>
	</g>
	<g>
		<path d="M61.5,514.4c-20.2,0-36.6-16.4-36.6-36.6c0-20.2,16.4-36.6,36.6-36.6c20.2,0,36.6,16.4,36.6,36.6
			C98.1,498,81.7,514.4,61.5,514.4z M61.5,442.6c-19.4,0-35.2,15.8-35.2,35.2c0,19.4,15.8,35.2,35.2,35.2s35.2-15.8,35.2-35.2
			C96.7,458.4,80.9,442.6,61.5,442.6z"/>
	</g>
	<g>
		<path d="M122.3,478.5H0.7c-0.4,0-0.7-0.3-0.7-0.7c0-0.4,0.3-0.7,0.7-0.7h121.6c0.4,0,0.7,0.3,0.7,0.7
			C123,478.2,122.7,478.5,122.3,478.5z"/>
	</g>
</g>
</svg>
